…
use group_by

``` r
weather_df |>
  group_by(name, month)
```

    ## # A tibble: 2,190 × 7
    ## # Groups:   name, month [72]
    ##    name           id          date        prcp  tmax  tmin month     
    ##    <chr>          <chr>       <date>     <dbl> <dbl> <dbl> <date>    
    ##  1 CentralPark_NY USW00094728 2021-01-01   157   4.4   0.6 2021-01-01
    ##  2 CentralPark_NY USW00094728 2021-01-02    13  10.6   2.2 2021-01-01
    ##  3 CentralPark_NY USW00094728 2021-01-03    56   3.3   1.1 2021-01-01
    ##  4 CentralPark_NY USW00094728 2021-01-04     5   6.1   1.7 2021-01-01
    ##  5 CentralPark_NY USW00094728 2021-01-05     0   5.6   2.2 2021-01-01
    ##  6 CentralPark_NY USW00094728 2021-01-06     0   5     1.1 2021-01-01
    ##  7 CentralPark_NY USW00094728 2021-01-07     0   5    -1   2021-01-01
    ##  8 CentralPark_NY USW00094728 2021-01-08     0   2.8  -2.7 2021-01-01
    ##  9 CentralPark_NY USW00094728 2021-01-09     0   2.8  -4.3 2021-01-01
    ## 10 CentralPark_NY USW00094728 2021-01-10     0   5    -1.6 2021-01-01
    ## # ℹ 2,180 more rows

counting stuff

``` r
weather_df |>
  group_by(month) |>
  summarize(n_obs = n())
```

    ## # A tibble: 24 × 2
    ##    month      n_obs
    ##    <date>     <int>
    ##  1 2021-01-01    93
    ##  2 2021-02-01    84
    ##  3 2021-03-01    93
    ##  4 2021-04-01    90
    ##  5 2021-05-01    93
    ##  6 2021-06-01    90
    ##  7 2021-07-01    93
    ##  8 2021-08-01    93
    ##  9 2021-09-01    90
    ## 10 2021-10-01    93
    ## # ℹ 14 more rows

``` r
weather_df |>
  group_by(name, month) |>
  summarize(
    n_obs = n(),
    n_dist = n_distinct(month))
```

    ## `summarise()` has grouped output by 'name'. You can override using the
    ## `.groups` argument.

    ## # A tibble: 72 × 4
    ## # Groups:   name [3]
    ##    name           month      n_obs n_dist
    ##    <chr>          <date>     <int>  <int>
    ##  1 CentralPark_NY 2021-01-01    31      1
    ##  2 CentralPark_NY 2021-02-01    28      1
    ##  3 CentralPark_NY 2021-03-01    31      1
    ##  4 CentralPark_NY 2021-04-01    30      1
    ##  5 CentralPark_NY 2021-05-01    31      1
    ##  6 CentralPark_NY 2021-06-01    30      1
    ##  7 CentralPark_NY 2021-07-01    31      1
    ##  8 CentralPark_NY 2021-08-01    31      1
    ##  9 CentralPark_NY 2021-09-01    30      1
    ## 10 CentralPark_NY 2021-10-01    31      1
    ## # ℹ 62 more rows

``` r
weather_df |>
  count(month, name = "n_obs")
```

    ## # A tibble: 24 × 2
    ##    month      n_obs
    ##    <date>     <int>
    ##  1 2021-01-01    93
    ##  2 2021-02-01    84
    ##  3 2021-03-01    93
    ##  4 2021-04-01    90
    ##  5 2021-05-01    93
    ##  6 2021-06-01    90
    ##  7 2021-07-01    93
    ##  8 2021-08-01    93
    ##  9 2021-09-01    90
    ## 10 2021-10-01    93
    ## # ℹ 14 more rows
…
# general numeric summaries

``` r
weather_df |>
  group_by(month) |>
  summarize(
    mean_tmax = mean(tmax, na.rm = TRUE),
    mean_prec = mean(prcp, na.rm = TRUE),
    median_tmax = median(tmax),
    sd_tmax = sd(tmax))
```

    ## # A tibble: 24 × 5
    ##    month      mean_tmax mean_prec median_tmax sd_tmax
    ##    <date>         <dbl>     <dbl>       <dbl>   <dbl>
    ##  1 2021-01-01     10.9       39.5         5     12.2 
    ##  2 2021-02-01      9.82      42.6         2.8   12.2 
    ##  3 2021-03-01     13.7       55.5        NA     NA   
    ##  4 2021-04-01     16.8       14.7        18.0    9.29
    ##  5 2021-05-01     19.6       17.3        22.2    9.40
    ##  6 2021-06-01     24.3       14.1        28.3    8.28
    ##  7 2021-07-01     25.2       30.7        28.3    6.19
    ##  8 2021-08-01     25.2       30.6        28.3    6.72
    ##  9 2021-09-01     22.4       35.4        24.4    7.69
    ## 10 2021-10-01     18.2       36.0        20.6   10.1 
    ## # ℹ 14 more rows

``` r
weather_df |>
  group_by(name, month) |>
  summarize(
    mean_tmax = mean(tmax),
    median_tmax = median(tmax))
```

    ## `summarise()` has grouped output by 'name'. You can override using the
    ## `.groups` argument.

    ## # A tibble: 72 × 4
    ## # Groups:   name [3]
    ##    name           month      mean_tmax median_tmax
    ##    <chr>          <date>         <dbl>       <dbl>
    ##  1 CentralPark_NY 2021-01-01      4.27         5  
    ##  2 CentralPark_NY 2021-02-01      3.87         2.8
    ##  3 CentralPark_NY 2021-03-01     12.3         12.2
    ##  4 CentralPark_NY 2021-04-01     17.6         18.0
    ##  5 CentralPark_NY 2021-05-01     22.1         22.2
    ##  6 CentralPark_NY 2021-06-01     28.1         27.8
    ##  7 CentralPark_NY 2021-07-01     28.4         28.3
    ##  8 CentralPark_NY 2021-08-01     28.8         28.3
    ##  9 CentralPark_NY 2021-09-01     24.8         24.4
    ## 10 CentralPark_NY 2021-10-01     19.9         20.6
    ## # ℹ 62 more rows
…
find hottest and coldest days

``` r
weather_df |>
  group_by(name, month) |>
  mutate(temp_rank = min_rank(tmax)) |> 
  filter(temp_rank < 10)
```

    ## # A tibble: 751 × 8
    ## # Groups:   name, month [72]
    ##    name           id          date        prcp  tmax  tmin month      temp_rank
    ##    <chr>          <chr>       <date>     <dbl> <dbl> <dbl> <date>         <int>
    ##  1 CentralPark_NY USW00094728 2021-01-08     0   2.8  -2.7 2021-01-01         8
    ##  2 CentralPark_NY USW00094728 2021-01-09     0   2.8  -4.3 2021-01-01         8
    ##  3 CentralPark_NY USW00094728 2021-01-11     0   2.8  -2.1 2021-01-01         8
    ##  4 CentralPark_NY USW00094728 2021-01-23     0   2.2  -4.3 2021-01-01         7
    ##  5 CentralPark_NY USW00094728 2021-01-24     0   0    -5.5 2021-01-01         3
    ##  6 CentralPark_NY USW00094728 2021-01-25     0   2.8  -4.9 2021-01-01         8
    ##  7 CentralPark_NY USW00094728 2021-01-26    25   1.1  -0.5 2021-01-01         5
    ##  8 CentralPark_NY USW00094728 2021-01-27     0   2.8  -0.5 2021-01-01         8
    ##  9 CentralPark_NY USW00094728 2021-01-28     0   1.1  -6.6 2021-01-01         5
    ## 10 CentralPark_NY USW00094728 2021-01-29     0  -3.8  -9.9 2021-01-01         1
    ## # ℹ 741 more rows

``` r
weather_df |>
  group_by(name, month) |>
  filter(min_rank(tmax) < 2)
```

    ## # A tibble: 92 × 7
    ## # Groups:   name, month [72]
    ##    name           id          date        prcp  tmax  tmin month     
    ##    <chr>          <chr>       <date>     <dbl> <dbl> <dbl> <date>    
    ##  1 CentralPark_NY USW00094728 2021-01-29     0  -3.8  -9.9 2021-01-01
    ##  2 CentralPark_NY USW00094728 2021-02-08     0  -1.6  -8.2 2021-02-01
    ##  3 CentralPark_NY USW00094728 2021-03-02     0   0.6  -6   2021-03-01
    ##  4 CentralPark_NY USW00094728 2021-04-02     0   3.9  -2.1 2021-04-01
    ##  5 CentralPark_NY USW00094728 2021-05-29   117  10.6   8.3 2021-05-01
    ##  6 CentralPark_NY USW00094728 2021-05-30   226  10.6   8.3 2021-05-01
    ##  7 CentralPark_NY USW00094728 2021-06-11     0  20.6  16.7 2021-06-01
    ##  8 CentralPark_NY USW00094728 2021-06-12     0  20.6  16.7 2021-06-01
    ##  9 CentralPark_NY USW00094728 2021-07-03    86  18.9  15   2021-07-01
    ## 10 CentralPark_NY USW00094728 2021-08-04     0  24.4  19.4 2021-08-01
    ## # ℹ 82 more rows

``` r
weather_df |>
  group_by(name, month) |>
  filter(min_rank(desc(tmax)) < 4)
```

    ## # A tibble: 269 × 7
    ## # Groups:   name, month [72]
    ##    name           id          date        prcp  tmax  tmin month     
    ##    <chr>          <chr>       <date>     <dbl> <dbl> <dbl> <date>    
    ##  1 CentralPark_NY USW00094728 2021-01-02    13  10.6   2.2 2021-01-01
    ##  2 CentralPark_NY USW00094728 2021-01-14     0   9.4   3.9 2021-01-01
    ##  3 CentralPark_NY USW00094728 2021-01-16   198   8.3   2.8 2021-01-01
    ##  4 CentralPark_NY USW00094728 2021-02-16   208  10.6   1.1 2021-02-01
    ##  5 CentralPark_NY USW00094728 2021-02-24     0  12.2   3.9 2021-02-01
    ##  6 CentralPark_NY USW00094728 2021-02-25     0  10     4.4 2021-02-01
    ##  7 CentralPark_NY USW00094728 2021-02-27    99  10     3.3 2021-02-01
    ##  8 CentralPark_NY USW00094728 2021-03-11     0  21.7   6.7 2021-03-01
    ##  9 CentralPark_NY USW00094728 2021-03-26    48  27.8  11.1 2021-03-01
    ## 10 CentralPark_NY USW00094728 2021-03-27     0  20.6  10   2021-03-01
    ## # ℹ 259 more rows

``` r
weather_df |>
  group_by(name) |>
  mutate(temp_change = tmax - lag(tmax))
```

    ## # A tibble: 2,190 × 8
    ## # Groups:   name [3]
    ##    name           id         date        prcp  tmax  tmin month      temp_change
    ##    <chr>          <chr>      <date>     <dbl> <dbl> <dbl> <date>           <dbl>
    ##  1 CentralPark_NY USW000947… 2021-01-01   157   4.4   0.6 2021-01-01      NA    
    ##  2 CentralPark_NY USW000947… 2021-01-02    13  10.6   2.2 2021-01-01       6.2  
    ##  3 CentralPark_NY USW000947… 2021-01-03    56   3.3   1.1 2021-01-01      -7.3  
    ##  4 CentralPark_NY USW000947… 2021-01-04     5   6.1   1.7 2021-01-01       2.8  
    ##  5 CentralPark_NY USW000947… 2021-01-05     0   5.6   2.2 2021-01-01      -0.5  
    ##  6 CentralPark_NY USW000947… 2021-01-06     0   5     1.1 2021-01-01      -0.600
    ##  7 CentralPark_NY USW000947… 2021-01-07     0   5    -1   2021-01-01       0    
    ##  8 CentralPark_NY USW000947… 2021-01-08     0   2.8  -2.7 2021-01-01      -2.2  
    ##  9 CentralPark_NY USW000947… 2021-01-09     0   2.8  -4.3 2021-01-01       0    
    ## 10 CentralPark_NY USW000947… 2021-01-10     0   5    -1.6 2021-01-01       2.2  
    ## # ℹ 2,180 more rows
…
